%YAML 1.1
%TAG !u! tag:unity3d.com,2011:
--- !u!114 &11400000
MonoBehaviour:
  m_ObjectHideFlags: 0
  m_PrefabParentObject: {fileID: 0}
  m_PrefabInternal: {fileID: 0}
  m_GameObject: {fileID: 0}
  m_Enabled: 1
  m_EditorHideFlags: 0
  m_Script: {fileID: 11500000, guid: f2462ce064adf644c95c68dc0d0d5012, type: 3}
  m_Name: SubCh01
  m_EditorClassIdentifier: 
  index: 1
  SceneBuildIndex: 3
  scene: {fileID: 0}
  Header: ???Header
  Summary: ???Summary
  MapPosition: {x: 0, y: 0}
  StarScore: 000000004600000078000000b4000000
  StarXp: 0000000002000000050000000a000000
  StarMoney: 00000000320000000a00000096000000
  StarSpecMoney: 00000000010000000200000003000000
  DisallowedMices: 
  DisallowedBuffs: 
  DisallowedPlacables: 
  GivenMices: 
  GivenBuffs: 
  GivenPlacables: 
  MaxUsableMiceCount: 0
  MaxUsableBuffCount: 0
  MaxUsablePlacableCount: 0
  ToWinSeconds: 0
  ToWinArrive: -1
  ToWinNotDeath: -1
  RemoveMiceObstacle: 0
