%YAML 1.1
%TAG !u! tag:unity3d.com,2011:
--- !u!114 &11400000
MonoBehaviour:
  m_ObjectHideFlags: 0
  m_PrefabParentObject: {fileID: 0}
  m_PrefabInternal: {fileID: 0}
  m_GameObject: {fileID: 0}
  m_Enabled: 0
  m_EditorHideFlags: 0
  m_Script: {fileID: 11500000, guid: 59cb11f467473d64ebbdf37033adedbf, type: 3}
  m_Name: SubCh12
  m_EditorClassIdentifier: 
  index: 12
  SceneBuildIndex: 14
  scene: {fileID: 102900000, guid: 31187d32201935844b89bbbfdf211905, type: 3}
  Header: Unknown Holes
  Summary: ???Summary
  MapPosition: {x: 0, y: -20}
  StarScore: 00000000320000004b00000064000000
  StarXp: 0000000002000000050000000a000000
  StarMoney: 00000000320000000a00000096000000
  StarSpecMoney: 00000000010000000200000003000000
  DisallowedMices: 
  DisallowedBuffs: ffffffff
  DisallowedPlacables: 
  GivenMices: 
  GivenBuffs: 0000000000000000
  GivenPlacables: 
  MaxUsableMiceCount: 0
  MaxUsableBuffCount: 0
  MaxUsablePlacableCount: 0
  ToWinSeconds: -20
  ToWinArrive: 1
  ToWinNotDeath: -1
  RemoveMiceObstacle: 0
