%YAML 1.1
%TAG !u! tag:unity3d.com,2011:
--- !u!114 &11400000
MonoBehaviour:
  m_ObjectHideFlags: 0
  m_PrefabParentObject: {fileID: 0}
  m_PrefabInternal: {fileID: 0}
  m_GameObject: {fileID: 0}
  m_Enabled: 0
  m_EditorHideFlags: 0
  m_Script: {fileID: 11500000, guid: 59cb11f467473d64ebbdf37033adedbf, type: 3}
  m_Name: SubCh04
  m_EditorClassIdentifier: 
  index: 4
  SceneBuildIndex: 6
  scene: {fileID: 102900000, guid: 2536f94405c782f4db4d3425f7c1443f, type: 3}
  Header: Fastests
  Summary: ???Summary
  MapPosition: {x: 30, y: 135}
  StarScore: 000000004600000078000000b4000000
  StarXp: 0000000002000000050000000a000000
  StarMoney: 00000000320000000a00000096000000
  StarSpecMoney: 00000000010000000200000003000000
  DisallowedMices: 
  DisallowedBuffs: ffffffff
  DisallowedPlacables: 
  GivenMices: 
  GivenBuffs: 
  GivenPlacables: 
  MaxUsableMiceCount: 0
  MaxUsableBuffCount: 0
  MaxUsablePlacableCount: 0
  ToWinSeconds: 30
  ToWinArrive: 8
  ToWinNotDeath: 0
