%YAML 1.1
%TAG !u! tag:unity3d.com,2011:
--- !u!114 &11400000
MonoBehaviour:
  m_ObjectHideFlags: 0
  m_PrefabParentObject: {fileID: 0}
  m_PrefabInternal: {fileID: 0}
  m_GameObject: {fileID: 0}
  m_Enabled: 1
  m_EditorHideFlags: 0
  m_Script: {fileID: 11500000, guid: 03ec82b6704840245a967f4e54dfa052, type: 3}
  m_Name: Ach-UnlockCh4
  m_EditorClassIdentifier: 
  GooglePlayId: 
  GameJoltId: 89060
  Name: First Playing
  Summary: 
  ImageUrl: 
  Value: 0
