%YAML 1.1
%TAG !u! tag:unity3d.com,2011:
--- !u!114 &11400000
MonoBehaviour:
  m_ObjectHideFlags: 0
  m_PrefabParentObject: {fileID: 0}
  m_PrefabInternal: {fileID: 0}
  m_GameObject: {fileID: 0}
  m_Enabled: 1
  m_EditorHideFlags: 0
  m_Script: {fileID: 11500000, guid: da44b5a3965cb9f4caf69c98345be916, type: 3}
  m_Name: Ch01
  m_EditorClassIdentifier: 
  Index: 1
  Header: Tutorials
  Summary: 
  FrontSpritePreLoaded: {fileID: 21300000, guid: 891a65a41c17e024d8f987bed61a8bda,
    type: 3}
  MapSpritePreLoaded: {fileID: 21300000, guid: 9d0fb1ffee63043489c8a041978ddc10, type: 3}
  GameJoltScoreTableId: 324762
  GooglePlayScoreTableId: CgkI86LD7bMHEAIQHQ
  SubChapters:
    _key: 0100000002000000030000000400000005000000060000000700000008000000090000000a0000000b0000000c0000000d0000000e0000000f000000
    _val:
    - {fileID: 11400000, guid: 1f60f2a0059e88d4bb03cfe9fe549c07, type: 2}
    - {fileID: 11400000, guid: c4750c3a58832d04db8dcd8d81149380, type: 2}
    - {fileID: 11400000, guid: e9b989763443b8a4c95a4fb04551bcd0, type: 2}
    - {fileID: 11400000, guid: 8baba420ab5c46546a692325d11d68a3, type: 2}
    - {fileID: 11400000, guid: ac13eacdfda41254284119c84c092a3e, type: 2}
    - {fileID: 11400000, guid: 7e1a9811e036048408a8f8073df0866e, type: 2}
    - {fileID: 11400000, guid: 9fc9997ee1175e64f8532465da43ecf0, type: 2}
    - {fileID: 11400000, guid: 3795dc2defd8243459516d3fdb595abf, type: 2}
    - {fileID: 11400000, guid: 46d617fcedb3d8f49b4b6282e04409be, type: 2}
    - {fileID: 11400000, guid: e51e8cce5bf42ae418ed5e836a772770, type: 2}
    - {fileID: 11400000, guid: dab4e94611291634e930dee1634ff98f, type: 2}
    - {fileID: 11400000, guid: 71bd1724cb48aea418e530add0da653c, type: 2}
    - {fileID: 11400000, guid: 9edbb8bcb67a5f340b733c2ccf0cfb03, type: 2}
    - {fileID: 11400000, guid: fa19c87043345c24fb0f4dee6a509e1f, type: 2}
    - {fileID: 11400000, guid: cfc5ea7649becdb48bf768d8426b3848, type: 2}
    _errorList: 
    _keyType: 0
    _valType: {fileID: 0}
    _divider: 0
    _selected: 0
    reset: 0
