%YAML 1.1
%TAG !u! tag:unity3d.com,2011:
--- !u!114 &11400000
MonoBehaviour:
  m_ObjectHideFlags: 0
  m_PrefabParentObject: {fileID: 0}
  m_PrefabInternal: {fileID: 0}
  m_GameObject: {fileID: 0}
  m_Enabled: 1
  m_EditorHideFlags: 0
  m_Script: {fileID: 11500000, guid: da44b5a3965cb9f4caf69c98345be916, type: 3}
  m_Name: Ch02
  m_EditorClassIdentifier: 
  Index: 2
  Header: Tower
  Summary: 
  FrontSpritePreLoaded: {fileID: 21300000, guid: 467d53626e71e6d40b59edd8d4927502,
    type: 3}
  MapSpritePreLoaded: {fileID: 21300000, guid: 5f91fbcf9a126c74cafa0ee666551b90, type: 3}
  GameJoltScoreTableId: 0
  GooglePlayScoreTableId: 
  SubChapters:
    _key: 01000000
    _val:
    - {fileID: 11400000, guid: 2470a8bcdf198d541975cad8f336042f, type: 2}
    _errorList: 
    _keyType: 0
    _valType: {fileID: 0}
    _divider: 0
    _selected: 0
    reset: 0
